<?xml version="1.0" encoding="UTF-8" standalone="no"?>
<!-- Created with Inkscape (http://www.inkscape.org/) -->

<svg
   xmlns:dc="http://purl.org/dc/elements/1.1/"
   xmlns:cc="http://creativecommons.org/ns#"
   xmlns:rdf="http://www.w3.org/1999/02/22-rdf-syntax-ns#"
   xmlns:svg="http://www.w3.org/2000/svg"
   xmlns="http://www.w3.org/2000/svg"
   xmlns:sodipodi="http://sodipodi.sourceforge.net/DTD/sodipodi-0.dtd"
   xmlns:inkscape="http://www.inkscape.org/namespaces/inkscape"
   width="400"
   height="400"
   id="svg3334"
   version="1.1"
   inkscape:version="0.91 r13725"
   sodipodi:docname="PADDUK - V2-1.svg"
   inkscape:export-filename="/media/h2oops/BACKUP/DATA/Proyectos/PADDUK/MARCA/padduk-1.png"
   inkscape:export-xdpi="90"
   inkscape:export-ydpi="90">
  <defs
     id="defs3336">
    <inkscape:perspective
       sodipodi:type="inkscape:persp3d"
       inkscape:vp_x="284.61048 : 208.08122 : 1"
       inkscape:vp_y="0 : 1000 : 0"
       inkscape:vp_z="135.0875 : 148.22968 : 1"
       inkscape:persp3d-origin="193.43401 : 130.30287 : 1"
       id="perspective3347" />
  </defs>
  <sodipodi:namedview
     id="base"
     pagecolor="#ffffff"
     bordercolor="#666666"
     borderopacity="1.0"
     inkscape:pageopacity="0.0"
     inkscape:pageshadow="2"
     inkscape:zoom="0.70710678"
     inkscape:cx="120.72104"
     inkscape:cy="240.21218"
     inkscape:document-units="px"
     inkscape:current-layer="layer2"
     showgrid="false"
     showguides="false"
     inkscape:guide-bbox="true"
     inkscape:window-width="1366"
     inkscape:window-height="714"
     inkscape:window-x="0"
     inkscape:window-y="0"
     inkscape:window-maximized="1" />
  <metadata
     id="metadata3339">
    <rdf:RDF>
      <cc:Work
         rdf:about="">
        <dc:format>image/svg+xml</dc:format>
        <dc:type
           rdf:resource="http://purl.org/dc/dcmitype/StillImage" />
        <dc:title></dc:title>
      </cc:Work>
    </rdf:RDF>
  </metadata>
  <g
     inkscape:label="Capa 1"
     inkscape:groupmode="layer"
     id="layer1"
     transform="translate(0,-652.36218)" />
  <g
     inkscape:groupmode="layer"
     id="layer2"
     inkscape:label="Capa 2">
    <g
       id="g4154">
      <path
         inkscape:export-ydpi="90"
         inkscape:export-xdpi="90"
         sodipodi:type="star"
         style="fill:#ffffff;stroke:none;stroke-width:11.66666698;stroke-miterlimit:4;stroke-dasharray:none;stroke-opacity:1"
         id="path4395"
         sodipodi:sides="6"
         sodipodi:cx="260.08736"
         sodipodi:cy="121.80316"
         sodipodi:r1="101.46016"
         sodipodi:r2="87.867073"
         sodipodi:arg1="1.0471976"
         sodipodi:arg2="1.5707963"
         inkscape:flatsided="true"
         inkscape:rounded="0"
         inkscape:randomized="0"
         d="m 310.81745,209.67024 -101.46016,-1e-5 -50.73008,-87.86707 50.73009,-87.867076 101.46016,5e-6 50.73007,87.867081 z" />
      <path
         inkscape:export-ydpi="90"
         inkscape:export-xdpi="90"
         d="m 321.38462,366.06392 -101.46016,-10e-6 -50.73008,-87.86708 50.73009,-87.86707 101.46015,1e-5 50.73008,87.86707 z"
         inkscape:randomized="0"
         inkscape:rounded="0"
         inkscape:flatsided="true"
         sodipodi:arg2="1.5707963"
         sodipodi:arg1="1.0471976"
         sodipodi:r2="87.867073"
         sodipodi:r1="101.46016"
         sodipodi:cy="278.19684"
         sodipodi:cx="270.65453"
         sodipodi:sides="6"
         id="path4397"
         style="fill:#ffffff;fill-opacity:1;stroke:none;stroke-width:11.66666698;stroke-miterlimit:4;stroke-dasharray:none;stroke-opacity:1"
         sodipodi:type="star" />
      <path
         inkscape:export-ydpi="90"
         inkscape:export-xdpi="90"
         sodipodi:type="star"
         style="fill:#000000;stroke:none;stroke-width:11.66666698;stroke-miterlimit:4;stroke-dasharray:none;stroke-opacity:1"
         id="path4401"
         sodipodi:sides="6"
         sodipodi:cx="270.65453"
         sodipodi:cy="278.19684"
         sodipodi:r1="79.718704"
         sodipodi:r2="69.038422"
         sodipodi:arg1="1.0471976"
         sodipodi:arg2="1.5707963"
         inkscape:flatsided="true"
         inkscape:rounded="0"
         inkscape:randomized="0"
         d="m 310.51389,347.23526 -79.7187,0 -39.85935,-69.03843 39.85935,-69.03842 79.71871,1e-5 39.85935,69.03842 z" />
      <path
         inkscape:export-ydpi="90"
         inkscape:export-xdpi="90"
         d="m 180.07555,297.02681 -101.46016,-1e-5 -50.730075,-87.86708 50.730084,-87.86707 101.460161,1e-5 50.73007,87.86707 z"
         inkscape:randomized="0"
         inkscape:rounded="0"
         inkscape:flatsided="true"
         sodipodi:arg2="1.5707963"
         sodipodi:arg1="1.0471976"
         sodipodi:r2="87.867073"
         sodipodi:r1="101.46016"
         sodipodi:cy="209.15973"
         sodipodi:cx="129.34547"
         sodipodi:sides="6"
         id="path4393"
         style="fill:#ffffff;stroke:none;stroke-width:11.66666698;stroke-miterlimit:4;stroke-dasharray:none;stroke-opacity:1"
         sodipodi:type="star" />
      <path
         inkscape:export-ydpi="90"
         inkscape:export-xdpi="90"
         sodipodi:type="star"
         style="fill:#000000;stroke:none;stroke-width:11.66666698;stroke-miterlimit:4;stroke-dasharray:none;stroke-opacity:1"
         id="path4403"
         sodipodi:sides="6"
         sodipodi:cx="129.34547"
         sodipodi:cy="209.15973"
         sodipodi:r1="79.718704"
         sodipodi:r2="69.038422"
         sodipodi:arg1="1.0471976"
         sodipodi:arg2="1.5707963"
         inkscape:flatsided="true"
         inkscape:rounded="0"
         inkscape:randomized="0"
         d="m 169.20482,278.19815 -79.718701,0 -39.859349,-69.03842 39.859356,-69.03843 79.718704,1e-5 39.85935,69.03842 z" />
      <path
         inkscape:export-ydpi="90"
         inkscape:export-xdpi="90"
         d="m 165.67908,272.09248 -72.667216,0 -36.333603,-62.93166 36.33361,-62.93165 72.667209,1e-5 36.33361,62.93165 z"
         inkscape:randomized="0"
         inkscape:rounded="0"
         inkscape:flatsided="true"
         sodipodi:arg2="1.5707963"
         sodipodi:arg1="1.0471976"
         sodipodi:r2="62.931648"
         sodipodi:r1="72.667213"
         sodipodi:cy="209.16083"
         sodipodi:cx="129.34547"
         sodipodi:sides="6"
         id="path4506"
         style="fill:#1a1a1a;stroke:none;stroke-width:0.1;stroke-miterlimit:4;stroke-dasharray:none;stroke-opacity:1"
         sodipodi:type="star" />
      <path
         inkscape:export-ydpi="90"
         inkscape:export-xdpi="90"
         inkscape:connector-curvature="0"
         style="fill:#1a1a1a;stroke:none;stroke-opacity:1"
         d="m 165.67746,146.22682 -36.33382,62.93129 36.33525,62.9345 36.3338,-62.9313 -36.33523,-62.93449 z"
         id="path4508" />
      <path
         inkscape:export-ydpi="90"
         inkscape:export-xdpi="90"
         inkscape:connector-curvature="0"
         style="fill:#1a1a1a;stroke:none;stroke-opacity:1"
         d="m 129.34466,209.16082 -72.666408,0 36.33322,62.93167 72.670478,10e-6 -36.33729,-62.93168 z"
         id="path4510" />
      <path
         inkscape:export-ydpi="90"
         inkscape:export-xdpi="90"
         inkscape:connector-curvature="0"
         style="fill:#999999;fill-opacity:1;stroke:none;stroke-opacity:1"
         d="m 56.678262,209.16373 72.666988,3.5e-4 36.33527,-62.93449 -72.666998,-3.4e-4 -36.33526,62.93448 z"
         id="path4512" />
      <path
         inkscape:export-ydpi="90"
         inkscape:export-xdpi="90"
         d="m 306.98814,341.12971 -72.66721,0 -36.3336,-62.93165 36.33361,-62.93166 72.66721,1e-5 36.3336,62.93165 z"
         inkscape:randomized="0"
         inkscape:rounded="0"
         inkscape:flatsided="true"
         sodipodi:arg2="1.5707963"
         sodipodi:arg1="1.0471976"
         sodipodi:r2="62.931648"
         sodipodi:r1="72.667213"
         sodipodi:cy="278.19806"
         sodipodi:cx="270.65453"
         sodipodi:sides="6"
         id="path4518"
         style="fill:#1a1a1a;stroke:none;stroke-width:0.1;stroke-miterlimit:4;stroke-dasharray:none;stroke-opacity:1"
         sodipodi:type="star" />
      <path
         inkscape:export-ydpi="90"
         inkscape:export-xdpi="90"
         inkscape:connector-curvature="0"
         style="fill:#1a1a1a;stroke:none;stroke-opacity:1"
         d="m 306.98654,215.26401 -36.33383,62.93129 36.33526,62.93451 36.33378,-62.93131 -36.33521,-62.93449 z"
         id="path4520" />
      <path
         inkscape:export-ydpi="90"
         inkscape:export-xdpi="90"
         inkscape:connector-curvature="0"
         style="fill:#1a1a1a;stroke:none;stroke-opacity:1"
         d="m 270.65373,278.19801 -72.6664,0 36.33322,62.93167 72.67048,2e-5 -36.3373,-62.93169 z"
         id="path4522" />
      <path
         inkscape:export-ydpi="90"
         inkscape:export-xdpi="90"
         inkscape:connector-curvature="0"
         style="fill:#999999;fill-opacity:1;stroke:none;stroke-opacity:1"
         d="m 197.98734,278.20093 72.66698,3.5e-4 36.33528,-62.9345 -72.66699,-3.3e-4 -36.33527,62.93448 z"
         id="path4524" />
      <path
         inkscape:export-ydpi="90"
         inkscape:export-xdpi="90"
         d="m 299.94672,190.84159 -79.7187,-1e-5 -39.85935,-69.03842 39.85935,-69.038423 79.71871,4e-6 39.85935,69.038429 z"
         inkscape:randomized="0"
         inkscape:rounded="0"
         inkscape:flatsided="true"
         sodipodi:arg2="1.5707963"
         sodipodi:arg1="1.0471976"
         sodipodi:r2="69.038422"
         sodipodi:r1="79.718704"
         sodipodi:cy="121.80316"
         sodipodi:cx="260.08736"
         sodipodi:sides="6"
         id="path3655"
         style="fill:#000000;stroke:none;stroke-width:11.66666698;stroke-miterlimit:4;stroke-dasharray:none;stroke-opacity:1"
         sodipodi:type="star" />
      <path
         inkscape:export-ydpi="90"
         inkscape:export-xdpi="90"
         sodipodi:type="star"
         style="fill:#1a1a1a;stroke:none;stroke-width:0.1;stroke-miterlimit:4;stroke-dasharray:none;stroke-opacity:1"
         id="path3657"
         sodipodi:sides="6"
         sodipodi:cx="260.08736"
         sodipodi:cy="121.80438"
         sodipodi:r1="72.667213"
         sodipodi:r2="62.931648"
         sodipodi:arg1="1.0471976"
         sodipodi:arg2="1.5707963"
         inkscape:flatsided="true"
         inkscape:rounded="0"
         inkscape:randomized="0"
         d="m 296.42098,184.73604 -72.66722,-1e-5 -36.3336,-62.93165 36.33361,-62.931652 72.66721,3e-6 36.33361,62.931659 z" />
      <path
         inkscape:export-ydpi="90"
         inkscape:export-xdpi="90"
         id="path3659"
         d="m 296.41938,58.870368 -36.33383,62.931292 36.33526,62.9345 36.33378,-62.9313 -36.33521,-62.934492 z"
         style="fill:#1a1a1a;stroke:none;stroke-opacity:1"
         inkscape:connector-curvature="0" />
      <path
         inkscape:export-ydpi="90"
         inkscape:export-xdpi="90"
         id="path3661"
         d="m 260.08657,121.80437 -72.6664,0 36.33322,62.93166 72.67048,1e-5 -36.3373,-62.93167 z"
         style="fill:#1a1a1a;stroke:none;stroke-opacity:1"
         inkscape:connector-curvature="0" />
      <path
         inkscape:export-ydpi="90"
         inkscape:export-xdpi="90"
         id="path3663"
         d="m 187.42018,121.80728 72.66698,3.6e-4 36.33528,-62.934502 -72.66699,-3.4e-4 -36.33527,62.934482 z"
         style="fill:#999999;stroke:none;stroke-opacity:1"
         inkscape:connector-curvature="0" />
    </g>
  </g>
</svg>
